^C:\USERS\JGRIGLEY\DOCUMENTS\VISUAL STUDIO 2013\PROJECTS\TETRIS\TETRIS\DEBUG\BLOCK.OBJ|C:\USERS\JGRIGLEY\DOCUMENTS\VISUAL STUDIO 2013\PROJECTS\TETRIS\TETRIS\DEBUG\FIELD.OBJ|C:\USERS\JGRIGLEY\DOCUMENTS\VISUAL STUDIO 2013\PROJECTS\TETRIS\TETRIS\DEBUG\HUD.OBJ|C:\USERS\JGRIGLEY\DOCUMENTS\VISUAL STUDIO 2013\PROJECTS\TETRIS\TETRIS\DEBUG\SHAPE.OBJ|C:\USERS\JGRIGLEY\DOCUMENTS\VISUAL STUDIO 2013\PROJECTS\TETRIS\TETRIS\DEBUG\STDAFX.OBJ|C:\USERS\JGRIGLEY\DOCUMENTS\VISUAL STUDIO 2013\PROJECTS\TETRIS\TETRIS\DEBUG\TETRIS.OBJ|C:\USERS\JGRIGLEY\DOCUMENTS\VISUAL STUDIO 2013\PROJECTS\TETRIS\TETRIS\DEBUG\UTILITY.OBJ
C:\PROGRAM FILES (X86)\WINDOWS KITS\8.1\LIB\WINV6.3\UM\X86\KERNEL32.LIB
C:\PROGRAM FILES (X86)\WINDOWS KITS\8.1\LIB\WINV6.3\UM\X86\USER32.LIB
C:\PROGRAM FILES (X86)\WINDOWS KITS\8.1\LIB\WINV6.3\UM\X86\GDI32.LIB
C:\PROGRAM FILES (X86)\WINDOWS KITS\8.1\LIB\WINV6.3\UM\X86\WINSPOOL.LIB
C:\PROGRAM FILES (X86)\WINDOWS KITS\8.1\LIB\WINV6.3\UM\X86\COMDLG32.LIB
C:\PROGRAM FILES (X86)\WINDOWS KITS\8.1\LIB\WINV6.3\UM\X86\ADVAPI32.LIB
C:\PROGRAM FILES (X86)\WINDOWS KITS\8.1\LIB\WINV6.3\UM\X86\SHELL32.LIB
C:\PROGRAM FILES (X86)\WINDOWS KITS\8.1\LIB\WINV6.3\UM\X86\OLE32.LIB
C:\PROGRAM FILES (X86)\WINDOWS KITS\8.1\LIB\WINV6.3\UM\X86\OLEAUT32.LIB
C:\PROGRAM FILES (X86)\WINDOWS KITS\8.1\LIB\WINV6.3\UM\X86\UUID.LIB
C:\PROGRAM FILES (X86)\WINDOWS KITS\8.1\LIB\WINV6.3\UM\X86\ODBC32.LIB
C:\PROGRAM FILES (X86)\WINDOWS KITS\8.1\LIB\WINV6.3\UM\X86\ODBCCP32.LIB
C:\USERS\JGRIGLEY\DOCUMENTS\VISUAL STUDIO 2013\PROJECTS\TETRIS\TETRIS\DEBUG\BLOCK.OBJ
C:\USERS\JGRIGLEY\DOCUMENTS\VISUAL STUDIO 2013\PROJECTS\TETRIS\TETRIS\DEBUG\FIELD.OBJ
C:\USERS\JGRIGLEY\DOCUMENTS\VISUAL STUDIO 2013\PROJECTS\TETRIS\TETRIS\DEBUG\HUD.OBJ
C:\USERS\JGRIGLEY\DOCUMENTS\VISUAL STUDIO 2013\PROJECTS\TETRIS\TETRIS\DEBUG\SHAPE.OBJ
C:\USERS\JGRIGLEY\DOCUMENTS\VISUAL STUDIO 2013\PROJECTS\TETRIS\TETRIS\DEBUG\STDAFX.OBJ
C:\USERS\JGRIGLEY\DOCUMENTS\VISUAL STUDIO 2013\PROJECTS\TETRIS\TETRIS\DEBUG\TETRIS.OBJ
C:\USERS\JGRIGLEY\DOCUMENTS\VISUAL STUDIO 2013\PROJECTS\TETRIS\TETRIS\DEBUG\UTILITY.OBJ
C:\WINDOWS\GLOBALIZATION\SORTING\SORTDEFAULT.NLS
C:\PROGRAM FILES (X86)\MICROSOFT VISUAL STUDIO 12.0\VC\LIB\MSVCPRTD.LIB
C:\USERS\JGRIGLEY\DOCUMENTS\VISUAL STUDIO 2013\PROJECTS\TETRIS\TETRIS\FREEGLUT.LIB
C:\PROGRAM FILES (X86)\WINDOWS KITS\8.1\LIB\WINV6.3\UM\X86\GLU32.LIB
C:\PROGRAM FILES (X86)\WINDOWS KITS\8.1\LIB\WINV6.3\UM\X86\OPENGL32.LIB
C:\PROGRAM FILES (X86)\WINDOWS KITS\8.1\LIB\WINV6.3\UM\X86\WINMM.LIB
C:\PROGRAM FILES (X86)\MICROSOFT VISUAL STUDIO 12.0\VC\LIB\MSVCRTD.LIB
C:\PROGRAM FILES (X86)\MICROSOFT VISUAL STUDIO 12.0\VC\LIB\OLDNAMES.LIB
C:\PROGRAM FILES (X86)\WINDOWS KITS\8.1\BIN\X86\RC.EXE
C:\PROGRAM FILES (X86)\MICROSOFT VISUAL STUDIO 12.0\VC\BIN\CVTRES.EXE
C:\WINDOWS\SYSTEM32\TZRES.DLL
C:\WINDOWS\SYSTEM32\RSAENH.DLL
